{
	"dataSpeedAB": [114,34,152,119,132,132,114,78,111,131,134,156,
			131,97,78,123,75,67,45,75,86,132,134,135],
	"dataSpeedAC":  [234,221,222,189,188,176,214,178,111,231,234,256,
			231,197,178,223,175,167,245,175,186,232,234,135],
	"dataSpeedAD": [342,121,222,109,158,276,124,178,121,181,234,156,
			231,197,278,213,125,267,145,275,86,232,364,335],
	"dataBagAB": [23,12,42,23,21,3,21,4,14,53,23,43,
			43,21,32,43,12,23,26,26,34,24,23,15],
	"dataBagAC": [43,34,53,32,54,24,25,25,24,34,53,23,
			27,25,35,26,27,45,24,35,45,27,24,37],
	"dataBagAD": [32,2,23,23,1,2,32,14,13,15,18,17,
			31,15,17,26,10,25,23,9,24,26,32,15]
}